…
``` r
df %>% filter(n_authors >= 7, col_code == 2)
```

    ## # A tibble: 43 x 11
    ##     year date       title           authors         n_authors col_code volume
    ##    <dbl> <date>     <chr>           <chr>               <dbl> <chr>     <dbl>
    ##  1  2010 2010-01-22 Soil moisture … C. Gruhier, P.…        11 2            14
    ##  2  2010 2010-02-22 A contribution… E. Alcântara, …         7 2            14
    ##  3  2010 2010-05-28 Modelling soil… S. Juglea, Y. …        10 2            14
    ##  4  2010 2010-06-24 A quality asse… T. Graeff, E. …         8 2            14
    ##  5  2010 2010-08-24 A past dischar… G. Thirel, E. …         7 2            14
    ##  6  2010 2010-09-09 Combined use o… D. Courault, R…         7 2            14
    ##  7  2010 2010-10-11 A multi basin … Z. M. Easton, …         9 2            14
    ##  8  2010 2010-10-21 Bayesian appro… H. Murakami, X…         8 2            14
    ##  9  2010 2010-12-06 Interannual va… F. Frappart, F…         8 2            14
    ## 10  2010 2010-12-16 Error characte… W. A. Dorigo, …         7 2            14
    ## # … with 33 more rows, and 4 more variables: start_page <dbl>, end_page <dbl>,
    ## #   base_url <chr>, filename <chr>
…
``` r
library(tidytext)

df %>% 
    unnest_tokens(word, title) %>% 
    select(col_code, word, n_authors) %>% 
    mutate(word_len = str_length(word)) %>% 
    filter(word_len >= 5) %>% 
    group_by(word) %>% 
    add_count() %>% 
    ungroup()
```

    ## # A tibble: 7,621 x 5
    ##    col_code word         n_authors word_len     n
    ##    <chr>    <chr>            <dbl>    <int> <int>
    ##  1 bw       bringing             1        8     1
    ##  2 bw       together             1        8     1
    ##  3 0        consumptive          2       11     1
    ##  4 0        water                2        5   161
    ##  5 0        humanity             2        8     1
    ##  6 0        curing               2        6     1
    ##  7 0        blind                2        5     1
    ##  8 bw       significance         2       12     2
    ##  9 bw       spatial              2        7    31
    ## 10 bw       variability          2       11    37
    ## # … with 7,611 more rows
